ulaReduz/v_reduz.vcd
$date
  Mon Nov 17 16:02:57 2014
$end
$version
  GHDL v0
$end
$timescale
  1 fs
$end
$var reg 1 ! rel $end
$var reg 1 " rst $end
$var reg 1 # r_nxt $end
$var reg 1 $ r_rdy $end
$var reg 1 % r_eof $end
$var reg 1 & w_sel $end
$var reg 1 ' w_rdy $end
$var reg 32 ( entrada[31:0] $end
$var reg 32 ) saida[31:0] $end
$scope module u_read_input $end
$var reg 1 * rst $end
$var reg 1 + rel $end
$var reg 32 , data[31:0] $end
$var reg 1 - eof $end
$upscope $end
$scope module u_reduz $end
$var reg 1 . rst $end
$var reg 1 / rel $end
$var reg 32 0 valor[31:0] $end
$var reg 32 1 saida[31:0] $end
$var reg 1 2 sel $end
$var reg 3 3 ea[2:0] $end
$var reg 3 4 pe[2:0] $end
$var reg 5 5 ender[4:0] $end
$comment ctrl_word is not handled $end
$var reg 32 6 alfa[31:0] $end
$var reg 32 7 beta[31:0] $end
$var reg 32 8 delta[31:0] $end
$var reg 32 9 inp_beta[31:0] $end
$var reg 32 : init[31:0] $end
$var reg 32 ; opcode[31:0] $end
$var reg 32 < num[31:0] $end
$var reg 1 = ld_alfa $end
$var reg 1 > ld_beta $end
$var reg 1 ? ld_oper $end
$var reg 1 @ clr_beta $end
$var reg 1 A ld_tam $end
$var reg 1 B en_dec $end
$var reg 1 C sync $end
$var reg 1 D fim $end
$var reg 1 E ld_delta $end
$scope module u_beta_reg $end
$var reg 1 F rel $end
$var reg 1 G rst $end
$var reg 1 H ld $end
$var reg 32 I d[31:0] $end
$var reg 32 J q[31:0] $end
$var reg 32 K value[31:0] $end
$upscope $end
$scope module u_ula $end
$var reg 32 L alfa[31:0] $end
$var reg 32 M beta[31:0] $end
$var reg 3 N oper[2:0] $end
$var reg 32 O delta[31:0] $end
$upscope $end
$scope module u_delta_reg $end
$var reg 1 P rel $end
$var reg 1 Q rst $end
$var reg 1 R ld $end
$var reg 32 S d[31:0] $end
$var reg 32 T q[31:0] $end
$var reg 32 U value[31:0] $end
$upscope $end
$scope module u_oper_reg $end
$var reg 1 V rel $end
$var reg 1 W rst $end
$var reg 1 X ld $end
$var reg 32 Y d[31:0] $end
$var reg 32 Z q[31:0] $end
$var reg 32 [ value[31:0] $end
$upscope $end
$scope module u_tam_dec $end
$var reg 1 \ rel $end
$var reg 1 ] rst $end
$var reg 1 ^ ld $end
$var reg 1 _ en $end
$var reg 32 ` d[31:0] $end
$var reg 32 a q[31:0] $end
$var reg 32 b count[31:0] $end
$upscope $end
$scope module u_st_reg $end
$var reg 1 c rel $end
$var reg 1 d rst $end
$var reg 1 e ld $end
$var reg 3 f d[2:0] $end
$var reg 3 g q[2:0] $end
$var reg 3 h value[2:0] $end
$upscope $end
$upscope $end
$scope module u_write_output $end
$var reg 1 i rst $end
$var reg 1 j rel $end
$var reg 1 k sel $end
$var reg 32 l data[31:0] $end
$upscope $end
$enddefinitions $end
#0
1!
0"
0#
0$
0%
0&
0'
b01010101010101011010101010101010 (
b00000000000000000000000000000000 )
0*
1+
b01010101010101011010101010101010 ,
0-
0.
1/
b01010101010101011010101010101010 0
b00000000000000000000000000000000 1
02
b000 3
b001 4
b00010 5
b01010101010101011010101010101010 6
b00000000000000000000000000000000 7
b01010101010101011010101010101010 8
b01010101010101011010101010101010 9
b00000000000000000000000000000000 :
b00000000000000000000000000000000 ;
b00000000000000000000000000000000 <
0=
0>
0?
0@
0A
0B
1C
0D
0E
1F
0G
0H
b01010101010101011010101010101010 I
b00000000000000000000000000000000 J
b00000000000000000000000000000000 K
b01010101010101011010101010101010 L
b00000000000000000000000000000000 M
b000 N
b01010101010101011010101010101010 O
1P
0Q
1R
b01010101010101011010101010101010 S
b00000000000000000000000000000000 T
b00000000000000000000000000000000 U
1V
0W
0X
b01010101010101011010101010101010 Y
b00000000000000000000000000000000 Z
b00000000000000000000000000000000 [
1\
0]
0^
0_
b01010101010101011010101010101010 `
b00000000000000000000000000000000 a
b00000000000000000000000000000000 b
1c
0d
1e
b001 f
b000 g
b000 h
0i
1j
0k
b00000000000000000000000000000000 l
#250000
1"
1*
1.
1G
1Q
1W
1]
1d
1i
#500000
0!
0+
0/
0F
0P
0V
0\
0c
0j
#1000000
1!
b01010101010101011010101010101010 )
1+
1/
b01010101010101011010101010101010 1
b001 3
b00110 5
1?
1F
1P
b01010101010101011010101010101010 T
b01010101010101011010101010101010 U
1V
1X
1\
1c
b001 g
b001 h
1j
b01010101010101011010101010101010 l
#1500000
0!
0+
0/
0F
0P
0V
0\
0c
0j
#2000000
1!
1+
1/
b01010101010101011010101010101010 ;
1F
b010 N
1P
1V
b01010101010101011010101010101010 Z
b01010101010101011010101010101010 [
1\
1c
1j
#2500000
0!
0+
0/
0F
0P
0V
0\
0c
0j
#3000000
1!
b00000000000000000000000000000001 (
1+
b00000000000000000000000000000001 ,
1/
b00000000000000000000000000000001 0
b010 4
b00100 5
b00000000000000000000000000000001 6
b00000000000000000000000000000001 8
b00000000000000000000000000000001 9
0C
1F
b00000000000000000000000000000001 I
b00000000000000000000000000000001 L
b00000000000000000000000000000001 O
1P
b00000000000000000000000000000001 S
1V
b00000000000000000000000000000001 Y
1\
b00000000000000000000000000000001 `
1c
b010 f
1j
#3500000
0!
0+
0/
0F
0P
0V
0\
0c
0j
#4000000
1!
b00000000000000000000000000000100 (
b00000000000000000000000000000001 )
1+
b00000000000000000000000000000100 ,
1/
b00000000000000000000000000000100 0
b00000000000000000000000000000001 1
b010 3
b011 4
b01000 5
b00000000000000000000000000000100 6
b00000000000000000000000000000000 8
b11111111111111111111111111111111 9
b11111111111111111111111111111111 :
b00000000000000000000000000000001 ;
b00000000000000000000000000000100 <
1>
0?
1@
1A
1F
1H
b11111111111111111111111111111111 I
b00000000000000000000000000000100 L
b001 N
b00000000000000000000000000000000 O
1P
b00000000000000000000000000000000 S
b00000000000000000000000000000001 T
b00000000000000000000000000000001 U
1V
0X
b00000000000000000000000000000100 Y
b00000000000000000000000000000001 Z
b00000000000000000000000000000001 [
1\
1^
b00000000000000000000000000000100 `
b00000000000000000000000000000100 a
b00000000000000000000000000000100 b
1c
b011 f
b010 g
b010 h
1j
b00000000000000000000000000000001 l
#4500000
0!
0+
0/
0F
0P
0V
0\
0c
0j
#5000000
1!
b01010101010101011010101010101011 (
b00000000000000000000000000000000 )
1+
b01010101010101011010101010101011 ,
1/
b01010101010101011010101010101011 0
b00000000000000000000000000000000 1
b011 3
b01100 5
b01010101010101011010101010101011 6
b11111111111111111111111111111111 7
b01010101010101011010101010101011 8
b01010101010101011010101010101011 9
0@
0A
1B
1F
b01010101010101011010101010101011 I
b11111111111111111111111111111111 J
b11111111111111111111111111111111 K
b01010101010101011010101010101011 L
b11111111111111111111111111111111 M
b01010101010101011010101010101011 O
1P
b01010101010101011010101010101011 S
b00000000000000000000000000000000 T
b00000000000000000000000000000000 U
1V
b01010101010101011010101010101011 Y
1\
0^
1_
b01010101010101011010101010101011 `
1c
b011 g
b011 h
1j
b00000000000000000000000000000000 l
#5500000
0!
0+
0/
0F
0P
0V
0\
0c
0j
#6000000
1!
b01010101010101011010101010101100 (
b01010101010101011010101010101011 )
1+
b01010101010101011010101010101100 ,
1/
b01010101010101011010101010101100 0
b01010101010101011010101010101011 1
b01010101010101011010101010101100 6
b01010101010101011010101010101011 7
b01010101010101011010101010101000 8
b01010101010101011010101010101000 9
b00000000000000000000000000000011 <
1F
b01010101010101011010101010101000 I
b01010101010101011010101010101011 J
b01010101010101011010101010101011 K
b01010101010101011010101010101100 L
b01010101010101011010101010101011 M
b01010101010101011010101010101000 O
1P
b01010101010101011010101010101000 S
b01010101010101011010101010101011 T
b01010101010101011010101010101011 U
1V
b01010101010101011010101010101100 Y
1\
b01010101010101011010101010101100 `
b00000000000000000000000000000011 a
b00000000000000000000000000000011 b
1c
1j
b01010101010101011010101010101011 l
#6500000
0!
0+
0/
0F
0P
0V
0\
0c
0j
#7000000
1!
b01010101010101011010101010101101 (
b01010101010101011010101010101000 )
1+
b01010101010101011010101010101101 ,
1/
b01010101010101011010101010101101 0
b01010101010101011010101010101000 1
b01010101010101011010101010101101 6
b01010101010101011010101010101000 7
b00000000000000000000000000000010 <
1F
b01010101010101011010101010101000 J
b01010101010101011010101010101000 K
b01010101010101011010101010101101 L
b01010101010101011010101010101000 M
1P
b01010101010101011010101010101000 T
b01010101010101011010101010101000 U
1V
b01010101010101011010101010101101 Y
1\
b01010101010101011010101010101101 `
b00000000000000000000000000000010 a
b00000000000000000000000000000010 b
1c
1j
b01010101010101011010101010101000 l
#7500000
0!
0+
0/
0F
0P
0V
0\
0c
0j
#8000000
1!
b01010101010101010101010101010101 (
1+
b01010101010101010101010101010101 ,
1/
b01010101010101010101010101010101 0
b100 4
b01101 5
b01010101010101010101010101010101 6
b01010101010101010000000000000000 8
b01010101010101010000000000000000 9
b00000000000000000000000000000001 <
0>
0B
1D
1F
0H
b01010101010101010000000000000000 I
b01010101010101010101010101010101 L
b01010101010101010000000000000000 O
1P
b01010101010101010000000000000000 S
1V
b01010101010101010101010101010101 Y
1\
0_
b01010101010101010101010101010101 `
b00000000000000000000000000000001 a
b00000000000000000000000000000001 b
1c
b100 f
1j
#8500000
0!
0+
0/
0F
0P
0V
0\
0c
0j
#9000000
1!
1&
b01010101010101011010101010101010 (
b01010101010101010000000000000000 )
1+
b01010101010101011010101010101010 ,
1/
b01010101010101011010101010101010 0
b01010101010101010000000000000000 1
12
b100 3
b001 4
b10011 5
b01010101010101011010101010101010 6
b01010101010101011010101010101000 8
b01010101010101011010101010101000 9
1C
1E
1F
b01010101010101011010101010101000 I
b01010101010101011010101010101010 L
b01010101010101011010101010101000 O
1P
b01010101010101011010101010101000 S
b01010101010101010000000000000000 T
b01010101010101010000000000000000 U
1V
b01010101010101011010101010101010 Y
1\
b01010101010101011010101010101010 `
1c
b001 f
b100 g
b100 h
1j
1k
b01010101010101010000000000000000 l
#9500000
0!
0+
0/
0F
0P
0V
0\
0c
0j
#10000000
1!
0&
b00000000000000000000000000000010 (
b01010101010101011010101010101000 )
1+
b00000000000000000000000000000010 ,
1/
b00000000000000000000000000000010 0
b01010101010101011010101010101000 1
02
b001 3
b010 4
b00101 5
b00000000000000000000000000000010 6
b00000000000000000000000000000000 8
b00000000000000000000000000000000 9
1?
0C
0E
1F
b00000000000000000000000000000000 I
b00000000000000000000000000000010 L
b00000000000000000000000000000000 O
1P
b00000000000000000000000000000000 S
b01010101010101011010101010101000 T
b01010101010101011010101010101000 U
1V
1X
b00000000000000000000000000000010 Y
1\
b00000000000000000000000000000010 `
1c
b010 f
b001 g
b001 h
1j
0k
b01010101010101011010101010101000 l
#10500000
0!
0+
0/
0F
0P
0V
0\
0c
0j
#11000000
1!
b00000000000000000000000000000011 (
b00000000000000000000000000000000 )
1+
b00000000000000000000000000000011 ,
1/
b00000000000000000000000000000011 0
b00000000000000000000000000000000 1
b010 3
b011 4
b01000 5
b00000000000000000000000000000011 6
b01010101010101011010101010101011 8
b00000000000000000000000000000000 9
b00000000000000000000000000000000 :
b00000000000000000000000000000010 ;
b00000000000000000000000000000011 <
1>
0?
1@
1A
0D
1F
1H
b00000000000000000000000000000000 I
b00000000000000000000000000000011 L
b010 N
b01010101010101011010101010101011 O
1P
b01010101010101011010101010101011 S
b00000000000000000000000000000000 T
b00000000000000000000000000000000 U
1V
0X
b00000000000000000000000000000011 Y
b00000000000000000000000000000010 Z
b00000000000000000000000000000010 [
1\
1^
b00000000000000000000000000000011 `
b00000000000000000000000000000011 a
b00000000000000000000000000000011 b
1c
b011 f
b010 g
b010 h
1j
b00000000000000000000000000000000 l
#11500000
0!
0+
0/
0F
0P
0V
0\
0c
0j
#12000000
1!
b01010101010101011010101010101010 (
b01010101010101011010101010101011 )
1+
b01010101010101011010101010101010 ,
1/
b01010101010101011010101010101010 0
b01010101010101011010101010101011 1
b011 3
b01110 5
b01010101010101011010101010101010 6
b00000000000000000000000000000000 7
b01010101010101011010101010101010 8
b01010101010101011010101010101010 9
0@
0A
1B
1C
1F
b01010101010101011010101010101010 I
b00000000000000000000000000000000 J
b00000000000000000000000000000000 K
b01010101010101011010101010101010 L
b00000000000000000000000000000000 M
b01010101010101011010101010101010 O
1P
b01010101010101011010101010101010 S
b01010101010101011010101010101011 T
b01010101010101011010101010101011 U
1V
b01010101010101011010101010101010 Y
1\
0^
1_
b01010101010101011010101010101010 `
1c
b011 g
b011 h
1j
b01010101010101011010101010101011 l
#12500000
0!
0+
0/
0F
0P
0V
0\
0c
0j
#13000000
1!
b01010101010101011010101010101010 )
1+
1/
b01010101010101011010101010101010 1
b01010101010101011010101010101010 7
b00000000000000000000000000000010 <
1F
b01010101010101011010101010101010 J
b01010101010101011010101010101010 K
b01010101010101011010101010101010 M
1P
b01010101010101011010101010101010 T
b01010101010101011010101010101010 U
1V
1\
b00000000000000000000000000000010 a
b00000000000000000000000000000010 b
1c
1j
b01010101010101011010101010101010 l
#13500000
0!
0+
0/
0F
0P
0V
0\
0c
0j
#14000000
1!
b10101010101010100101010101010101 (
1+
b10101010101010100101010101010101 ,
1/
b10101010101010100101010101010101 0
b100 4
b01101 5
b10101010101010100101010101010101 6
b11111111111111111111111111111111 8
b11111111111111111111111111111111 9
b00000000000000000000000000000001 <
0>
0B
0C
1D
1F
0H
b11111111111111111111111111111111 I
b10101010101010100101010101010101 L
b11111111111111111111111111111111 O
1P
b11111111111111111111111111111111 S
1V
b10101010101010100101010101010101 Y
1\
0_
b10101010101010100101010101010101 `
b00000000000000000000000000000001 a
b00000000000000000000000000000001 b
1c
b100 f
1j
#14500000
0!
0+
0/
0F
0P
0V
0\
0c
0j
#15000000
1!
1&
b01010101010101011010101010101010 (
b11111111111111111111111111111111 )
1+
b01010101010101011010101010101010 ,
1/
b01010101010101011010101010101010 0
b11111111111111111111111111111111 1
12
b100 3
b001 4
b10011 5
b01010101010101011010101010101010 6
b01010101010101011010101010101010 8
b01010101010101011010101010101010 9
1C
1E
1F
b01010101010101011010101010101010 I
b01010101010101011010101010101010 L
b01010101010101011010101010101010 O
1P
b01010101010101011010101010101010 S
b11111111111111111111111111111111 T
b11111111111111111111111111111111 U
1V
b01010101010101011010101010101010 Y
1\
b01010101010101011010101010101010 `
1c
b001 f
b100 g
b100 h
1j
1k
b11111111111111111111111111111111 l
#15500000
0!
0+
0/
0F
0P
0V
0\
0c
0j
#16000000
1!
0&
b01010101010101011010101010101010 )
1+
1/
b01010101010101011010101010101010 1
02
b001 3
b00111 5
1?
0E
1F
1P
b01010101010101011010101010101010 T
b01010101010101011010101010101010 U
1V
1X
1\
1c
b001 g
b001 h
1j
0k
b01010101010101011010101010101010 l
#16500000
0!
0+
0/
0F
0P
0V
0\
0c
0j
#17000000
1!
b00000000000000000000000000000011 (
1+
b00000000000000000000000000000011 ,
1/
b00000000000000000000000000000011 0
b010 4
b00101 5
b00000000000000000000000000000011 6
b01010101010101011010101010101011 8
b01010101010101011010101010101011 9
b01010101010101011010101010101010 ;
0C
1F
b01010101010101011010101010101011 I
b00000000000000000000000000000011 L
b01010101010101011010101010101011 O
1P
b01010101010101011010101010101011 S
1V
b00000000000000000000000000000011 Y
b01010101010101011010101010101010 Z
b01010101010101011010101010101010 [
1\
b00000000000000000000000000000011 `
1c
b010 f
1j
#17500000
0!
0+
0/
0F
0P
0V
0\
0c
0j
#18000000
1!
b00000000000000000000000000000010 (
b01010101010101011010101010101011 )
1+
b00000000000000000000000000000010 ,
1/
b00000000000000000000000000000010 0
b01010101010101011010101010101011 1
b010 3
b011 4
b01000 5
b00000000000000000000000000000010 6
b01010101010101011010101010101100 8
b00000000000000000000000000000000 9
b00000000000000000000000000000011 ;
b00000000000000000000000000000010 <
1>
0?
1@
1A
0D
1F
1H
b00000000000000000000000000000000 I
b00000000000000000000000000000010 L
b011 N
b01010101010101011010101010101100 O
1P
b01010101010101011010101010101100 S
b01010101010101011010101010101011 T
b01010101010101011010101010101011 U
1V
0X
b00000000000000000000000000000010 Y
b00000000000000000000000000000011 Z
b00000000000000000000000000000011 [
1\
1^
b00000000000000000000000000000010 `
b00000000000000000000000000000010 a
b00000000000000000000000000000010 b
1c
b011 f
b010 g
b010 h
1j
b01010101010101011010101010101011 l
#18500000
0!
0+
0/
0F
0P
0V
0\
0c
0j
#19000000
1!
b01000100010001000100010001000100 (
b01010101010101011010101010101100 )
1+
b01000100010001000100010001000100 ,
1/
b01000100010001000100010001000100 0
b01010101010101011010101010101100 1
b011 3
b01100 5
b01000100010001000100010001000100 6
b00000000000000000000000000000000 7
b01000100010001000100010001000100 8
b01000100010001000100010001000100 9
0@
0A
1B
1F
b01000100010001000100010001000100 I
b00000000000000000000000000000000 J
b00000000000000000000000000000000 K
b01000100010001000100010001000100 L
b00000000000000000000000000000000 M
b01000100010001000100010001000100 O
1P
b01000100010001000100010001000100 S
b01010101010101011010101010101100 T
b01010101010101011010101010101100 U
1V
b01000100010001000100010001000100 Y
1\
0^
1_
b01000100010001000100010001000100 `
1c
b011 g
b011 h
1j
b01010101010101011010101010101100 l
#19500000
0!
0+
0/
0F
0P
0V
0\
0c
0j
#20000000
1!
b10001000100010001000100010001000 (
b01000100010001000100010001000100 )
1+
b10001000100010001000100010001000 ,
1/
b10001000100010001000100010001000 0
b01000100010001000100010001000100 1
b100 4
b01101 5
b10001000100010001000100010001000 6
b01000100010001000100010001000100 7
b11001100110011001100110011001100 8
b11001100110011001100110011001100 9
b00000000000000000000000000000001 <
0>
0B
1D
1F
0H
b11001100110011001100110011001100 I
b01000100010001000100010001000100 J
b01000100010001000100010001000100 K
b10001000100010001000100010001000 L
b01000100010001000100010001000100 M
b11001100110011001100110011001100 O
1P
b11001100110011001100110011001100 S
b01000100010001000100010001000100 T
b01000100010001000100010001000100 U
1V
b10001000100010001000100010001000 Y
1\
0_
b10001000100010001000100010001000 `
b00000000000000000000000000000001 a
b00000000000000000000000000000001 b
1c
b100 f
1j
b01000100010001000100010001000100 l
#20500000
0!
0+
0/
0F
0P
0V
0\
0c
0j
#21000000
1!
1&
b01010101010101011010101010101010 (
b11001100110011001100110011001100 )
1+
b01010101010101011010101010101010 ,
1/
b01010101010101011010101010101010 0
b11001100110011001100110011001100 1
12
b100 3
b001 4
b10011 5
b01010101010101011010101010101010 6
b10011001100110011110111011101110 8
b10011001100110011110111011101110 9
1C
1E
1F
b10011001100110011110111011101110 I
b01010101010101011010101010101010 L
b10011001100110011110111011101110 O
1P
b10011001100110011110111011101110 S
b11001100110011001100110011001100 T
b11001100110011001100110011001100 U
1V
b01010101010101011010101010101010 Y
1\
b01010101010101011010101010101010 `
1c
b001 f
b100 g
b100 h
1j
1k
b11001100110011001100110011001100 l
#21500000
0!
0+
0/
0F
0P
0V
0\
0c
0j
#22000000
1!
0&
b00000000000000000000000000000100 (
b10011001100110011110111011101110 )
1+
b00000000000000000000000000000100 ,
1/
b00000000000000000000000000000100 0
b10011001100110011110111011101110 1
02
b001 3
b010 4
b00101 5
b00000000000000000000000000000100 6
b01000100010001000100010001001000 8
b01000100010001000100010001001000 9
1?
0C
0E
1F
b01000100010001000100010001001000 I
b00000000000000000000000000000100 L
b01000100010001000100010001001000 O
1P
b01000100010001000100010001001000 S
b10011001100110011110111011101110 T
b10011001100110011110111011101110 U
1V
1X
b00000000000000000000000000000100 Y
1\
b00000000000000000000000000000100 `
1c
b010 f
b001 g
b001 h
1j
0k
b10011001100110011110111011101110 l
#22500000
0!
0+
0/
0F
0P
0V
0\
0c
0j
#23000000
1!
b00000000000000000000000000000010 (
b01000100010001000100010001001000 )
1+
b00000000000000000000000000000010 ,
1/
b00000000000000000000000000000010 0
b01000100010001000100010001001000 1
b010 3
b011 4
b01000 5
b00000000000000000000000000000010 6
b10001000100010001000100010001000 8
b00000000000000000000000000000001 9
b00000000000000000000000000000001 :
b00000000000000000000000000000100 ;
b00000000000000000000000000000010 <
1>
0?
1@
1A
0D
1F
1H
b00000000000000000000000000000001 I
b00000000000000000000000000000010 L
b100 N
b10001000100010001000100010001000 O
1P
b10001000100010001000100010001000 S
b01000100010001000100010001001000 T
b01000100010001000100010001001000 U
1V
0X
b00000000000000000000000000000010 Y
b00000000000000000000000000000100 Z
b00000000000000000000000000000100 [
1\
1^
b00000000000000000000000000000010 `
b00000000000000000000000000000010 a
b00000000000000000000000000000010 b
1c
b011 f
b010 g
b010 h
1j
b01000100010001000100010001001000 l
#23500000
0!
0+
0/
0F
0P
0V
0\
0c
0j
#24000000
1!
b00000000000000000000000000000100 (
b10001000100010001000100010001000 )
1+
b00000000000000000000000000000100 ,
1/
b00000000000000000000000000000100 0
b10001000100010001000100010001000 1
b011 3
b01100 5
b00000000000000000000000000000100 6
b00000000000000000000000000000001 7
b00000000000000000000000000000100 8
b00000000000000000000000000000100 9
0@
0A
1B
1F
b00000000000000000000000000000100 I
b00000000000000000000000000000001 J
b00000000000000000000000000000001 K
b00000000000000000000000000000100 L
b00000000000000000000000000000001 M
b00000000000000000000000000000100 O
1P
b00000000000000000000000000000100 S
b10001000100010001000100010001000 T
b10001000100010001000100010001000 U
1V
b00000000000000000000000000000100 Y
1\
0^
1_
b00000000000000000000000000000100 `
1c
b011 g
b011 h
1j
b10001000100010001000100010001000 l
#24500000
0!
0+
0/
0F
0P
0V
0\
0c
0j
#25000000
1!
b00000000000000000000000000000100 )
1+
1/
b00000000000000000000000000000100 1
b100 4
b01101 5
b00000000000000000000000000000100 7
b00000000000000000000000000010000 8
b00000000000000000000000000010000 9
b00000000000000000000000000000001 <
0>
0B
1D
1F
0H
b00000000000000000000000000010000 I
b00000000000000000000000000000100 J
b00000000000000000000000000000100 K
b00000000000000000000000000000100 M
b00000000000000000000000000010000 O
1P
b00000000000000000000000000010000 S
b00000000000000000000000000000100 T
b00000000000000000000000000000100 U
1V
1\
0_
b00000000000000000000000000000001 a
b00000000000000000000000000000001 b
1c
b100 f
1j
b00000000000000000000000000000100 l
#25500000
0!
0+
0/
0F
0P
0V
0\
0c
0j
#26000000
1!
1&
b01010101010101011010101010101010 (
b00000000000000000000000000010000 )
1+
b01010101010101011010101010101010 ,
1/
b01010101010101011010101010101010 0
b00000000000000000000000000010000 1
12
b100 3
b001 4
b10011 5
b01010101010101011010101010101010 6
b01010101010101101010101010101000 8
b01010101010101101010101010101000 9
1C
1E
1F
b01010101010101101010101010101000 I
b01010101010101011010101010101010 L
b01010101010101101010101010101000 O
1P
b01010101010101101010101010101000 S
b00000000000000000000000000010000 T
b00000000000000000000000000010000 U
1V
b01010101010101011010101010101010 Y
1\
b01010101010101011010101010101010 `
1c
b001 f
b100 g
b100 h
1j
1k
b00000000000000000000000000010000 l
#26500000
0!
0+
0/
0F
0P
0V
0\
0c
0j
#27000000
1!
0&
b00000000000000000000000000000000 (
b01010101010101101010101010101000 )
1+
b00000000000000000000000000000000 ,
1/
b00000000000000000000000000000000 0
b01010101010101101010101010101000 1
02
b001 3
b010 4
b00101 5
b00000000000000000000000000000000 6
b00000000000000000000000000000000 8
b00000000000000000000000000000000 9
1?
0C
0E
1F
b00000000000000000000000000000000 I
b00000000000000000000000000000000 L
b00000000000000000000000000000000 O
1P
b00000000000000000000000000000000 S
b01010101010101101010101010101000 T
b01010101010101101010101010101000 U
1V
1X
b00000000000000000000000000000000 Y
1\
b00000000000000000000000000000000 `
1c
b010 f
b001 g
b001 h
1j
0k
b01010101010101101010101010101000 l
#27500000
0!
0+
0/
0F
0P
0V
0\
0c
0j
#28000000
1!
b00000000000000000000000000000010 (
b00000000000000000000000000000000 )
1+
b00000000000000000000000000000010 ,
1/
b00000000000000000000000000000010 0
b00000000000000000000000000000000 1
b010 3
b011 4
b01000 5
b00000000000000000000000000000010 6
b00000000000000000000000000000110 8
b00000000000000000000000000000000 9
b00000000000000000000000000000000 :
b00000000000000000000000000000000 ;
b00000000000000000000000000000010 <
1>
0?
1@
1A
0D
1F
1H
b00000000000000000000000000000000 I
b00000000000000000000000000000010 L
b000 N
b00000000000000000000000000000110 O
1P
b00000000000000000000000000000110 S
b00000000000000000000000000000000 T
b00000000000000000000000000000000 U
1V
0X
b00000000000000000000000000000010 Y
b00000000000000000000000000000000 Z
b00000000000000000000000000000000 [
1\
1^
b00000000000000000000000000000010 `
b00000000000000000000000000000010 a
b00000000000000000000000000000010 b
1c
b011 f
b010 g
b010 h
1j
b00000000000000000000000000000000 l
#28500000
0!
0+
0/
0F
0P
0V
0\
0c
0j
#29000000
1!
b01010101010101011010101010101010 (
b00000000000000000000000000000110 )
1+
b01010101010101011010101010101010 ,
1/
b01010101010101011010101010101010 0
b00000000000000000000000000000110 1
b011 3
b01110 5
b01010101010101011010101010101010 6
b00000000000000000000000000000000 7
b01010101010101011010101010101010 8
b01010101010101011010101010101010 9
0@
0A
1B
1C
1F
b01010101010101011010101010101010 I
b00000000000000000000000000000000 J
b00000000000000000000000000000000 K
b01010101010101011010101010101010 L
b00000000000000000000000000000000 M
b01010101010101011010101010101010 O
1P
b01010101010101011010101010101010 S
b00000000000000000000000000000110 T
b00000000000000000000000000000110 U
1V
b01010101010101011010101010101010 Y
1\
0^
1_
b01010101010101011010101010101010 `
1c
b011 g
b011 h
1j
b00000000000000000000000000000110 l
#29500000
0!
0+
0/
0F
0P
0V
0\
0c
0j
#30000000
1!
b10101010101010100101010101010101 (
b01010101010101011010101010101010 )
1+
b10101010101010100101010101010101 ,
1/
b10101010101010100101010101010101 0
b01010101010101011010101010101010 1
b100 4
b01101 5
b10101010101010100101010101010101 6
b01010101010101011010101010101010 7
b11111111111111111111111111111111 8
b11111111111111111111111111111111 9
b00000000000000000000000000000001 <
0>
0B
0C
1D
1F
0H
b11111111111111111111111111111111 I
b01010101010101011010101010101010 J
b01010101010101011010101010101010 K
b10101010101010100101010101010101 L
b01010101010101011010101010101010 M
b11111111111111111111111111111111 O
1P
b11111111111111111111111111111111 S
b01010101010101011010101010101010 T
b01010101010101011010101010101010 U
1V
b10101010101010100101010101010101 Y
1\
0_
b10101010101010100101010101010101 `
b00000000000000000000000000000001 a
b00000000000000000000000000000001 b
1c
b100 f
1j
b01010101010101011010101010101010 l
#30500000
0!
0+
0/
0F
0P
0V
0\
0c
0j
#31000000
1!
1%
1&
b01010101010101011010101010101010 (
b11111111111111111111111111111111 )
1+
b01010101010101011010101010101010 ,
1-
1/
b01010101010101011010101010101010 0
b11111111111111111111111111111111 1
12
b100 3
b001 4
b10011 5
b01010101010101011010101010101010 6
b00000000000000000000000000000000 8
b00000000000000000000000000000000 9
1C
1E
1F
b00000000000000000000000000000000 I
b01010101010101011010101010101010 L
b00000000000000000000000000000000 O
1P
b00000000000000000000000000000000 S
b11111111111111111111111111111111 T
b11111111111111111111111111111111 U
1V
b01010101010101011010101010101010 Y
1\
b01010101010101011010101010101010 `
1c
b001 f
b100 g
b100 h
1j
1k
b11111111111111111111111111111111 l
#31500000
0!
0+
0/
0F
0P
0V
0\
0c
0j
#32000000
1!
0&
b00000000000000000000000000000000 )
1+
1/
b00000000000000000000000000000000 1
02
b001 3
b00111 5
1?
0E
1F
1P
b00000000000000000000000000000000 T
b00000000000000000000000000000000 U
1V
1X
1\
1c
b001 g
b001 h
1j
0k
b00000000000000000000000000000000 l
#32500000
0!
0+
0/
0F
0P
0V
0\
0c
0j
#33000000
1!
1+
1/
b01010101010101011010101010101010 8
b01010101010101011010101010101010 9
b01010101010101011010101010101010 ;
1F
b01010101010101011010101010101010 I
b010 N
b01010101010101011010101010101010 O
1P
b01010101010101011010101010101010 S
1V
b01010101010101011010101010101010 Z
b01010101010101011010101010101010 [
1\
1c
1j
#33500000
0!
0+
0/
0F
0P
0V
0\
0c
0j
#34000000
1!
b01010101010101011010101010101010 )
1+
1/
b01010101010101011010101010101010 1
1F
1P
b01010101010101011010101010101010 T
b01010101010101011010101010101010 U
1V
1\
1c
1j
b01010101010101011010101010101010 l
#34500000
0!
0+
0/
0F
0P
0V
0\
0c
0j
#35000000
1!
1+
1/
1F
1P
1V
1\
1c
1j
#35500000
0!
0+
0/
0F
0P
0V
0\
0c
0j
#36000000
1!
1+
1/
1F
1P
1V
1\
1c
1j
#36500000
0!
0+
0/
0F
0P
0V
0\
0c
0j
#37000000
1!
1+
1/
1F
1P
1V
1\
1c
1j
#37500000
0!
0+
0/
0F
0P
0V
0\
0c
0j
#38000000
1!
1+
1/
1F
1P
1V
1\
1c
1j
#38500000
0!
0+
0/
0F
0P
0V
0\
0c
0j
#39000000
1!
1+
1/
1F
1P
1V
1\
1c
1j
#39500000
0!
0+
0/
0F
0P
0V
0\
0c
0j
#40000000
1!
1+
1/
1F
1P
1V
1\
1c
1j
#40500000
0!
0+
0/
0F
0P
0V
0\
0c
0j
#41000000
1!
1+
1/
1F
1P
1V
1\
1c
1j
#41500000
0!
0+
0/
0F
0P
0V
0\
0c
0j
#42000000
1!
1+
1/
1F
1P
1V
1\
1c
1j
#42500000
0!
0+
0/
0F
0P
0V
0\
0c
0j
#43000000
1!
1+
1/
1F
1P
1V
1\
1c
1j
#43500000
0!
0+
0/
0F
0P
0V
0\
0c
0j
#44000000
1!
1+
1/
1F
1P
1V
1\
1c
1j
#44500000
0!
0+
0/
0F
0P
0V
0\
0c
0j
#45000000
1!
1+
1/
1F
1P
1V
1\
1c
1j
#45500000
0!
0+
0/
0F
0P
0V
0\
0c
0j
#46000000
1!
1+
1/
1F
1P
1V
1\
1c
1j
#46500000
0!
0+
0/
0F
0P
0V
0\
0c
0j
#47000000
1!
1+
1/
1F
1P
1V
1\
1c
1j
#47500000
0!
0+
0/
0F
0P
0V
0\
0c
0j
#48000000
1!
1+
1/
1F
1P
1V
1\
1c
1j
#48500000
0!
0+
0/
0F
0P
0V
0\
0c
0j
